{
  "statusCode": 200,
  "data": {
    "page": 1,
    "limit": 5,
    "totalPages": 4,
    "previousPage": false,
    "nextPage": true,
    "totalItems": 20,
    "currentPageItems": 5,
    "data": [
      {
        "kind": "youtube#playlist",
        "id": "PLRAV69dS1uWTNPzObtUpbxe1L1lB97z2R",
        "snippet": {
          "publishedAt": "2023-07-19T13:14:09Z",
          "channelId": "UCXgGY0wkgOzynnHvSEVmE3A",
          "title": "Flutter | a project based learning",
          "description": "Learn flutter by building mobile apps",
          "thumbnails": {
            "default": {
              "url": "https://i.ytimg.com/vi/75hqPk6pq5g/default.jpg",
              "width": 120,
              "height": 90
            },
            "medium": {
              "url": "https://i.ytimg.com/vi/75hqPk6pq5g/mqdefault.jpg",
              "width": 320,
              "height": 180
            },
            "high": {
              "url": "https://i.ytimg.com/vi/75hqPk6pq5g/hqdefault.jpg",
              "width": 480,
              "height": 360
            },
            "standard": {
              "url": "https://i.ytimg.com/vi/75hqPk6pq5g/sddefault.jpg",
              "width": 640,
              "height": 480
            },
            "maxres": {
              "url": "https://i.ytimg.com/vi/75hqPk6pq5g/maxresdefault.jpg",
              "width": 1280,
              "height": 720
            }
          },
          "channelTitle": "Hitesh Choudhary",
          "localized": {
            "title": "Flutter | a project based learning",
            "description": "Learn flutter by building mobile apps"
          }
        }
      },
      {
        "kind": "youtube#playlist",
        "id": "PLRAV69dS1uWSx4erHGq8hW_GE-Eaj60r-",
        "snippet": {
          "publishedAt": "2023-07-18T12:28:02Z",
          "channelId": "UCXgGY0wkgOzynnHvSEVmE3A",
          "title": "FreeAPI.app",
          "description": "Learn and master API with our open source project, https://freeapi.app",
          "thumbnails": {
            "default": {
              "url": "https://i.ytimg.com/vi/xJq0EQMFGyg/default.jpg",
              "width": 120,
              "height": 90
            },
            "medium": {
              "url": "https://i.ytimg.com/vi/xJq0EQMFGyg/mqdefault.jpg",
              "width": 320,
              "height": 180
            },
            "high": {
              "url": "https://i.ytimg.com/vi/xJq0EQMFGyg/hqdefault.jpg",
              "width": 480,
              "height": 360
            },
            "standard": {
              "url": "https://i.ytimg.com/vi/xJq0EQMFGyg/sddefault.jpg",
              "width": 640,
              "height": 480
            },
            "maxres": {
              "url": "https://i.ytimg.com/vi/xJq0EQMFGyg/maxresdefault.jpg",
              "width": 1280,
              "height": 720
            }
          },
          "channelTitle": "Hitesh Choudhary",
          "localized": {
            "title": "FreeAPI.app",
            "description": "Learn and master API with our open source project, https://freeapi.app"
          }
        }
      },
      {
        "kind": "youtube#playlist",
        "id": "PLRAV69dS1uWR7KF-zV6YPYtKYEHENETyE",
        "snippet": {
          "publishedAt": "2023-06-30T11:35:07Z",
          "channelId": "UCXgGY0wkgOzynnHvSEVmE3A",
          "title": "Nextjs Fullstack course on Authentication",
          "description": "Learn about the lastest nextjs, new ways to create pages and API routes and middleware. This playlist will help you to understand nextjs in depth and you will be able to manage all projects easily after this.",
          "thumbnails": {
            "default": {
              "url": "https://i.ytimg.com/vi/iPGXk-i-VYU/default.jpg",
              "width": 120,
              "height": 90
            },
            "medium": {
              "url": "https://i.ytimg.com/vi/iPGXk-i-VYU/mqdefault.jpg",
              "width": 320,
              "height": 180
            },
            "high": {
              "url": "https://i.ytimg.com/vi/iPGXk-i-VYU/hqdefault.jpg",
              "width": 480,
              "height": 360
            },
            "standard": {
              "url": "https://i.ytimg.com/vi/iPGXk-i-VYU/sddefault.jpg",
              "width": 640,
              "height": 480
            },
            "maxres": {
              "url": "https://i.ytimg.com/vi/iPGXk-i-VYU/maxresdefault.jpg",
              "width": 1280,
              "height": 720
            }
          },
          "channelTitle": "Hitesh Choudhary",
          "localized": {
            "title": "Nextjs Fullstack course on Authentication",
            "description": "Learn about the lastest nextjs, new ways to create pages and API routes and middleware. This playlist will help you to understand nextjs in depth and you will be able to manage all projects easily after this."
          }
        }
      },
      {
        "kind": "youtube#playlist",
        "id": "PLRAV69dS1uWTjW8wHMv_fQSgU-8is6KTR",
        "snippet": {
          "publishedAt": "2023-06-16T17:56:18Z",
          "channelId": "UCXgGY0wkgOzynnHvSEVmE3A",
          "title": "AWS Certified Cloud Practitioner",
          "description": "Dive into our comprehensive AWS Certified Cloud Practitioner playlist. This series is tailored to assist you in your journey towards becoming an AWS Certified Cloud Practitioner. From understanding AWS core services to security basics and architectural principles, we've got you covered. Each video in this series breaks down complex cloud concepts into easily digestible segments, ensuring an optimal learning experience. Whether you're a novice just starting with AWS, or an IT professional looking to enhance your skills, this playlist is your stepping stone towards mastering the AWS cloud. Don't wait to transform your career, start your cloud certification journey today",
          "thumbnails": {
            "default": {
              "url": "https://i.ytimg.com/vi/VXqIJ2SJh9s/default.jpg",
              "width": 120,
              "height": 90
            },
            "medium": {
              "url": "https://i.ytimg.com/vi/VXqIJ2SJh9s/mqdefault.jpg",
              "width": 320,
              "height": 180
            },
            "high": {
              "url": "https://i.ytimg.com/vi/VXqIJ2SJh9s/hqdefault.jpg",
              "width": 480,
              "height": 360
            },
            "standard": {
              "url": "https://i.ytimg.com/vi/VXqIJ2SJh9s/sddefault.jpg",
              "width": 640,
              "height": 480
            },
            "maxres": {
              "url": "https://i.ytimg.com/vi/VXqIJ2SJh9s/maxresdefault.jpg",
              "width": 1280,
              "height": 720
            }
          },
          "channelTitle": "Hitesh Choudhary",
          "localized": {
            "title": "AWS Certified Cloud Practitioner",
            "description": "Dive into our comprehensive AWS Certified Cloud Practitioner playlist. This series is tailored to assist you in your journey towards becoming an AWS Certified Cloud Practitioner. From understanding AWS core services to security basics and architectural principles, we've got you covered. Each video in this series breaks down complex cloud concepts into easily digestible segments, ensuring an optimal learning experience. Whether you're a novice just starting with AWS, or an IT professional looking to enhance your skills, this playlist is your stepping stone towards mastering the AWS cloud. Don't wait to transform your career, start your cloud certification journey today"
          }
        }
      },
      {
        "kind": "youtube#playlist",
        "id": "PLRAV69dS1uWRfTGI-ZEWIWVj0Vs5IJwkh",
        "snippet": {
          "publishedAt": "2023-05-18T12:12:46Z",
          "channelId": "UCXgGY0wkgOzynnHvSEVmE3A",
          "title": "Is XYZ Dead",
          "description": "A playlist to tease beginners by poking their sentiment around tools. If you know it, enjoy the comment section otherwise go on full rage mode in comments. 🫣",
          "thumbnails": {
            "default": {
              "url": "https://i.ytimg.com/vi/EQwmQLU1S6I/default.jpg",
              "width": 120,
              "height": 90
            },
            "medium": {
              "url": "https://i.ytimg.com/vi/EQwmQLU1S6I/mqdefault.jpg",
              "width": 320,
              "height": 180
            },
            "high": {
              "url": "https://i.ytimg.com/vi/EQwmQLU1S6I/hqdefault.jpg",
              "width": 480,
              "height": 360
            },
            "standard": {
              "url": "https://i.ytimg.com/vi/EQwmQLU1S6I/sddefault.jpg",
              "width": 640,
              "height": 480
            },
            "maxres": {
              "url": "https://i.ytimg.com/vi/EQwmQLU1S6I/maxresdefault.jpg",
              "width": 1280,
              "height": 720
            }
          },
          "channelTitle": "Hitesh Choudhary",
          "localized": {
            "title": "Is XYZ Dead",
            "description": "A playlist to tease beginners by poking their sentiment around tools. If you know it, enjoy the comment section otherwise go on full rage mode in comments. 🫣"
          }
        }
      }
    ]
  },
  "message": "Playlists fetched successfully",
  "success": true
}